{
    "/js/all.js": "/js/all.js",
    "/css/all.css": "/css/all.css",
    "/favicon.ico": "/favicon.ico",
    "/css/Inter-Black.woff": "/css/Inter-Black.woff",
    "/css/Inter-Black.woff2": "/css/Inter-Black.woff2",
    "/css/Inter-BlackItalic.woff": "/css/Inter-BlackItalic.woff",
    "/css/Inter-BlackItalic.woff2": "/css/Inter-BlackItalic.woff2",
    "/css/Inter-Bold.woff": "/css/Inter-Bold.woff",
    "/css/Inter-Bold.woff2": "/css/Inter-Bold.woff2",
    "/css/Inter-BoldItalic.woff": "/css/Inter-BoldItalic.woff",
    "/css/Inter-BoldItalic.woff2": "/css/Inter-BoldItalic.woff2",
    "/css/Inter-ExtraBold.woff": "/css/Inter-ExtraBold.woff",
    "/css/Inter-ExtraBold.woff2": "/css/Inter-ExtraBold.woff2",
    "/css/Inter-ExtraBoldItalic.woff": "/css/Inter-ExtraBoldItalic.woff",
    "/css/Inter-ExtraBoldItalic.woff2": "/css/Inter-ExtraBoldItalic.woff2",
    "/css/Inter-ExtraLight.woff": "/css/Inter-ExtraLight.woff",
    "/css/Inter-ExtraLight.woff2": "/css/Inter-ExtraLight.woff2",
    "/css/Inter-ExtraLightItalic.woff": "/css/Inter-ExtraLightItalic.woff",
    "/css/Inter-ExtraLightItalic.woff2": "/css/Inter-ExtraLightItalic.woff2",
    "/css/Inter-Italic.woff": "/css/Inter-Italic.woff",
    "/css/Inter-Italic.woff2": "/css/Inter-Italic.woff2",
    "/css/Inter-Light.woff": "/css/Inter-Light.woff",
    "/css/Inter-Light.woff2": "/css/Inter-Light.woff2",
    "/css/Inter-LightItalic.woff": "/css/Inter-LightItalic.woff",
    "/css/Inter-LightItalic.woff2": "/css/Inter-LightItalic.woff2",
    "/css/Inter-Medium.woff": "/css/Inter-Medium.woff",
    "/css/Inter-Medium.woff2": "/css/Inter-Medium.woff2",
    "/css/Inter-MediumItalic.woff": "/css/Inter-MediumItalic.woff",
    "/css/Inter-MediumItalic.woff2": "/css/Inter-MediumItalic.woff2",
    "/css/Inter-Regular.woff": "/css/Inter-Regular.woff",
    "/css/Inter-Regular.woff2": "/css/Inter-Regular.woff2",
    "/css/Inter-SemiBold.woff": "/css/Inter-SemiBold.woff",
    "/css/Inter-SemiBold.woff2": "/css/Inter-SemiBold.woff2",
    "/css/Inter-SemiBoldItalic.woff": "/css/Inter-SemiBoldItalic.woff",
    "/css/Inter-SemiBoldItalic.woff2": "/css/Inter-SemiBoldItalic.woff2",
    "/css/Inter-Thin.woff": "/css/Inter-Thin.woff",
    "/css/Inter-Thin.woff2": "/css/Inter-Thin.woff2",
    "/css/Inter-ThinItalic.woff": "/css/Inter-ThinItalic.woff",
    "/css/Inter-ThinItalic.woff2": "/css/Inter-ThinItalic.woff2"
}
